{
    "version": "https://jsonfeed.org/version/1",
    "title": "Normandië",
    "description": "",
    "home_page_url": "https://katrienc.gitlab.io/normandie",
    "feed_url": "https://katrienc.gitlab.io/normandie/feed.json",
    "user_comment": "",
    "author": {
        "name": "Katrien"
    },
    "items": [
        {
            "id": "https://katrienc.gitlab.io/normandie/testing.html",
            "url": "https://katrienc.gitlab.io/normandie/testing.html",
            "title": "Ian  to do list",
            "summary": "kicking moms but in stratgo😜 learn mom roblox 🎮 learn mom the game 👾",
            "content_html": "<ol>\n<li>kicking moms but in stratgo😜</li>\n<li>learn mom roblox 🎮</li>\n<li>learn mom the game 👾</li>\n</ol>",
            "author": {
                "name": "Katrien"
            },
            "tags": [
            ],
            "date_published": "2022-07-27T15:45:36+02:00",
            "date_modified": "2022-07-27T20:53:08+02:00"
        }
    ]
}
